Invoking command in '/home/jason/ros2_ws/build/my_cpp_pkg': CMAKE_PREFIX_PATH=${CMAKE_PREFIX_PATH}:/home/jason/ros2_ws/install/my_py_pkg:/opt/ros/foxy /usr/bin/cmake --build /home/jason/ros2_ws/build/my_cpp_pkg -- -j4 -l4
Invoked command in '/home/jason/ros2_ws/build/my_cpp_pkg' returned '0': CMAKE_PREFIX_PATH=${CMAKE_PREFIX_PATH}:/home/jason/ros2_ws/install/my_py_pkg:/opt/ros/foxy /usr/bin/cmake --build /home/jason/ros2_ws/build/my_cpp_pkg -- -j4 -l4
Invoking command in '/home/jason/ros2_ws/build/my_cpp_pkg': CMAKE_PREFIX_PATH=${CMAKE_PREFIX_PATH}:/home/jason/ros2_ws/install/my_py_pkg:/opt/ros/foxy /usr/bin/cmake --install /home/jason/ros2_ws/build/my_cpp_pkg
Invoked command in '/home/jason/ros2_ws/build/my_cpp_pkg' returned '0': CMAKE_PREFIX_PATH=${CMAKE_PREFIX_PATH}:/home/jason/ros2_ws/install/my_py_pkg:/opt/ros/foxy /usr/bin/cmake --install /home/jason/ros2_ws/build/my_cpp_pkg
