[0.000000] (-) TimerEvent: {}
[0.000268] (-) JobUnselected: {'identifier': 'my_py_pkg'}
[0.000298] (my_cpp_pkg) JobQueued: {'identifier': 'my_cpp_pkg', 'dependencies': OrderedDict()}
[0.000316] (my_cpp_pkg) JobStarted: {'identifier': 'my_cpp_pkg'}
[0.099385] (-) TimerEvent: {}
[0.177959] (my_cpp_pkg) JobProgress: {'identifier': 'my_cpp_pkg', 'progress': 'cmake'}
[0.200310] (-) TimerEvent: {}
[0.288519] (my_cpp_pkg) JobProgress: {'identifier': 'my_cpp_pkg', 'progress': 'build'}
[0.288626] (my_cpp_pkg) Command: {'cmd': ['/usr/bin/cmake', '--build', '/home/jason/ros2_ws/build/my_cpp_pkg', '--', '-j4', '-l4'], 'cwd': '/home/jason/ros2_ws/build/my_cpp_pkg', 'env': OrderedDict([('LESSOPEN', '| /usr/bin/lesspipe %s'), ('USER', 'jason'), ('SSH_AGENT_PID', '1269'), ('XDG_SESSION_TYPE', 'x11'), ('SHLVL', '1'), ('LD_LIBRARY_PATH', '/opt/ros/foxy/opt/yaml_cpp_vendor/lib:/opt/ros/foxy/opt/rviz_ogre_vendor/lib:/opt/ros/foxy/lib/x86_64-linux-gnu:/opt/ros/foxy/lib'), ('HOME', '/home/jason'), ('OLDPWD', '/home/jason/ros2_ws/src'), ('DESKTOP_SESSION', 'ubuntu'), ('ROS_PYTHON_VERSION', '3'), ('GNOME_SHELL_SESSION_MODE', 'ubuntu'), ('GTK_MODULES', 'gail:atk-bridge'), ('MANAGERPID', '1035'), ('DBUS_SESSION_BUS_ADDRESS', 'unix:path=/run/user/1000/bus'), ('COLORTERM', 'truecolor'), ('IM_CONFIG_PHASE', '1'), ('COLCON_PREFIX_PATH', '/home/jason/ros2_ws/install'), ('ROS_DISTRO', 'foxy'), ('LOGNAME', 'jason'), ('JOURNAL_STREAM', '8:32847'), ('_', '/usr/bin/colcon'), ('ROS_VERSION', '2'), ('XDG_SESSION_CLASS', 'user'), ('USERNAME', 'jason'), ('TERM', 'xterm-256color'), ('GNOME_DESKTOP_SESSION_ID', 'this-is-deprecated'), ('ROS_LOCALHOST_ONLY', '0'), ('WINDOWPATH', '2'), ('PATH', '/opt/ros/foxy/bin:/usr/local/sbin:/usr/local/bin:/usr/sbin:/usr/bin:/sbin:/bin:/usr/games:/usr/local/games:/snap/bin'), ('SESSION_MANAGER', 'local/jason-vm:@/tmp/.ICE-unix/1341,unix/jason-vm:/tmp/.ICE-unix/1341'), ('INVOCATION_ID', '0e911e54357c4eda84d82919e4683c1c'), ('XDG_MENU_PREFIX', 'gnome-'), ('GNOME_TERMINAL_SCREEN', '/org/gnome/Terminal/screen/2fbc45ee_0cee_4947_8efc_aee3f36ac5bf'), ('XDG_RUNTIME_DIR', '/run/user/1000'), ('DISPLAY', ':0'), ('LANG', 'en_US.UTF-8'), ('XDG_CURRENT_DESKTOP', 'ubuntu:GNOME'), ('XMODIFIERS', '@im=ibus'), ('XDG_SESSION_DESKTOP', 'ubuntu'), ('XAUTHORITY', '/run/user/1000/gdm/Xauthority'), ('LS_COLORS', 'rs=0:di=01;34:ln=01;36:mh=00:pi=40;33:so=01;35:do=01;35:bd=40;33;01:cd=40;33;01:or=40;31;01:mi=00:su=37;41:sg=30;43:ca=30;41:tw=30;42:ow=34;42:st=37;44:ex=01;32:*.tar=01;31:*.tgz=01;31:*.arc=01;31:*.arj=01;31:*.taz=01;31:*.lha=01;31:*.lz4=01;31:*.lzh=01;31:*.lzma=01;31:*.tlz=01;31:*.txz=01;31:*.tzo=01;31:*.t7z=01;31:*.zip=01;31:*.z=01;31:*.dz=01;31:*.gz=01;31:*.lrz=01;31:*.lz=01;31:*.lzo=01;31:*.xz=01;31:*.zst=01;31:*.tzst=01;31:*.bz2=01;31:*.bz=01;31:*.tbz=01;31:*.tbz2=01;31:*.tz=01;31:*.deb=01;31:*.rpm=01;31:*.jar=01;31:*.war=01;31:*.ear=01;31:*.sar=01;31:*.rar=01;31:*.alz=01;31:*.ace=01;31:*.zoo=01;31:*.cpio=01;31:*.7z=01;31:*.rz=01;31:*.cab=01;31:*.wim=01;31:*.swm=01;31:*.dwm=01;31:*.esd=01;31:*.jpg=01;35:*.jpeg=01;35:*.mjpg=01;35:*.mjpeg=01;35:*.gif=01;35:*.bmp=01;35:*.pbm=01;35:*.pgm=01;35:*.ppm=01;35:*.tga=01;35:*.xbm=01;35:*.xpm=01;35:*.tif=01;35:*.tiff=01;35:*.png=01;35:*.svg=01;35:*.svgz=01;35:*.mng=01;35:*.pcx=01;35:*.mov=01;35:*.mpg=01;35:*.mpeg=01;35:*.m2v=01;35:*.mkv=01;35:*.webm=01;35:*.ogm=01;35:*.mp4=01;35:*.m4v=01;35:*.mp4v=01;35:*.vob=01;35:*.qt=01;35:*.nuv=01;35:*.wmv=01;35:*.asf=01;35:*.rm=01;35:*.rmvb=01;35:*.flc=01;35:*.avi=01;35:*.fli=01;35:*.flv=01;35:*.gl=01;35:*.dl=01;35:*.xcf=01;35:*.xwd=01;35:*.yuv=01;35:*.cgm=01;35:*.emf=01;35:*.ogv=01;35:*.ogx=01;35:*.aac=00;36:*.au=00;36:*.flac=00;36:*.m4a=00;36:*.mid=00;36:*.midi=00;36:*.mka=00;36:*.mp3=00;36:*.mpc=00;36:*.ogg=00;36:*.ra=00;36:*.wav=00;36:*.oga=00;36:*.opus=00;36:*.spx=00;36:*.xspf=00;36:'), ('GNOME_TERMINAL_SERVICE', ':1.88'), ('SSH_AUTH_SOCK', '/run/user/1000/keyring/ssh'), ('AMENT_PREFIX_PATH', '/home/jason/ros2_ws/install/my_py_pkg:/home/jason/ros2_ws/install/my_cpp_pkg:/opt/ros/foxy'), ('SHELL', '/bin/bash'), ('QT_ACCESSIBILITY', '1'), ('GDMSESSION', 'ubuntu'), ('LESSCLOSE', '/usr/bin/lesspipe %s %s'), ('GPG_AGENT_INFO', '/run/user/1000/gnupg/S.gpg-agent:0:1'), ('QT_IM_MODULE', 'ibus'), ('PWD', '/home/jason/ros2_ws/build/my_cpp_pkg'), ('XDG_CONFIG_DIRS', '/etc/xdg/xdg-ubuntu:/etc/xdg'), ('XDG_DATA_DIRS', '/usr/share/ubuntu:/usr/local/share/:/usr/share/:/var/lib/snapd/desktop'), ('PYTHONPATH', '/home/jason/ros2_ws/install/my_py_pkg/lib/python3.8/site-packages:/opt/ros/foxy/lib/python3.8/site-packages'), ('COLCON', '1'), ('VTE_VERSION', '6003'), ('CMAKE_PREFIX_PATH', '/home/jason/ros2_ws/install/my_cpp_pkg:/home/jason/ros2_ws/install/my_py_pkg:/opt/ros/foxy')]), 'shell': False}
[0.316868] (-) TimerEvent: {}
[0.419863] (-) TimerEvent: {}
[0.524150] (-) TimerEvent: {}
[0.628255] (-) TimerEvent: {}
[0.779527] (-) TimerEvent: {}
[0.882237] (-) TimerEvent: {}
[0.983215] (-) TimerEvent: {}
[1.084048] (-) TimerEvent: {}
[1.184906] (-) TimerEvent: {}
[1.287721] (-) TimerEvent: {}
[1.390407] (-) TimerEvent: {}
[1.490878] (-) TimerEvent: {}
[1.592359] (-) TimerEvent: {}
[1.693010] (-) TimerEvent: {}
[1.794081] (-) TimerEvent: {}
[1.895312] (-) TimerEvent: {}
[1.995898] (-) TimerEvent: {}
[2.100405] (-) TimerEvent: {}
[2.202382] (-) TimerEvent: {}
[2.306113] (-) TimerEvent: {}
[2.410384] (-) TimerEvent: {}
[2.512520] (-) TimerEvent: {}
[2.614618] (-) TimerEvent: {}
[2.716467] (-) TimerEvent: {}
[2.822319] (-) TimerEvent: {}
[2.924616] (-) TimerEvent: {}
[3.012321] (my_cpp_pkg) StdoutLine: {'line': b'\x1b[35m\x1b[1mScanning dependencies of target smartphone\x1b[0m\n'}
[3.024939] (-) TimerEvent: {}
[3.070881] (my_cpp_pkg) StdoutLine: {'line': b'\x1b[35m\x1b[1mScanning dependencies of target cpp_node\x1b[0m\n'}
[3.125400] (-) TimerEvent: {}
[3.129704] (my_cpp_pkg) StdoutLine: {'line': b'[ 16%] \x1b[32mBuilding CXX object CMakeFiles/cpp_node.dir/src/my_first_node.cpp.o\x1b[0m\n'}
[3.181628] (my_cpp_pkg) StdoutLine: {'line': b'[ 33%] \x1b[32mBuilding CXX object CMakeFiles/smartphone.dir/src/smartphone.cpp.o\x1b[0m\n'}
[3.227041] (-) TimerEvent: {}
[3.274784] (my_cpp_pkg) StdoutLine: {'line': b'[ 66%] Built target robot_news_station\n'}
[3.329760] (-) TimerEvent: {}
[3.430683] (-) TimerEvent: {}
[3.531204] (-) TimerEvent: {}
[3.637906] (-) TimerEvent: {}
[3.740146] (-) TimerEvent: {}
[3.841229] (-) TimerEvent: {}
[3.942563] (-) TimerEvent: {}
[4.044610] (-) TimerEvent: {}
[4.147933] (-) TimerEvent: {}
[4.249434] (-) TimerEvent: {}
[4.351410] (-) TimerEvent: {}
[4.463284] (-) TimerEvent: {}
[4.564408] (-) TimerEvent: {}
[4.665168] (-) TimerEvent: {}
[4.766156] (-) TimerEvent: {}
[4.867640] (-) TimerEvent: {}
[4.969324] (-) TimerEvent: {}
[5.070717] (-) TimerEvent: {}
[5.172025] (-) TimerEvent: {}
[5.274844] (-) TimerEvent: {}
[5.375643] (-) TimerEvent: {}
[5.476178] (-) TimerEvent: {}
[5.578757] (-) TimerEvent: {}
[5.679824] (-) TimerEvent: {}
[5.782326] (-) TimerEvent: {}
[5.882984] (-) TimerEvent: {}
[5.984051] (-) TimerEvent: {}
[6.084556] (-) TimerEvent: {}
[6.203760] (-) TimerEvent: {}
[6.304530] (-) TimerEvent: {}
[6.454051] (-) TimerEvent: {}
[6.555638] (-) TimerEvent: {}
[6.660921] (-) TimerEvent: {}
[6.765288] (-) TimerEvent: {}
[6.866218] (-) TimerEvent: {}
[6.966841] (-) TimerEvent: {}
[7.068149] (-) TimerEvent: {}
[7.170054] (-) TimerEvent: {}
[7.271090] (-) TimerEvent: {}
[7.371495] (-) TimerEvent: {}
[7.471882] (-) TimerEvent: {}
[7.572498] (-) TimerEvent: {}
[7.676654] (-) TimerEvent: {}
[7.778742] (-) TimerEvent: {}
[7.880748] (-) TimerEvent: {}
[7.981263] (-) TimerEvent: {}
[8.081985] (-) TimerEvent: {}
[8.182524] (-) TimerEvent: {}
[8.283872] (-) TimerEvent: {}
[8.385502] (-) TimerEvent: {}
[8.486950] (-) TimerEvent: {}
[8.521606] (my_cpp_pkg) StdoutLine: {'line': b'[ 83%] \x1b[32m\x1b[1mLinking CXX executable cpp_node\x1b[0m\n'}
[8.587060] (-) TimerEvent: {}
[8.728059] (-) TimerEvent: {}
[8.828422] (-) TimerEvent: {}
[8.928950] (-) TimerEvent: {}
[9.029450] (-) TimerEvent: {}
[9.130288] (-) TimerEvent: {}
[9.232732] (-) TimerEvent: {}
[9.333232] (-) TimerEvent: {}
[9.438199] (-) TimerEvent: {}
[9.504437] (my_cpp_pkg) StdoutLine: {'line': b'[ 83%] Built target cpp_node\n'}
[9.538735] (-) TimerEvent: {}
[9.639408] (-) TimerEvent: {}
[9.740803] (-) TimerEvent: {}
[9.776178] (my_cpp_pkg) StdoutLine: {'line': b'[100%] \x1b[32m\x1b[1mLinking CXX executable smartphone\x1b[0m\n'}
[9.842057] (-) TimerEvent: {}
[9.946095] (-) TimerEvent: {}
[10.071415] (-) TimerEvent: {}
[10.121988] (my_cpp_pkg) StdoutLine: {'line': b'[100%] Built target smartphone\n'}
[10.133340] (my_cpp_pkg) CommandEnded: {'returncode': 0}
[10.172398] (-) TimerEvent: {}
[10.210029] (my_cpp_pkg) JobProgress: {'identifier': 'my_cpp_pkg', 'progress': 'install'}
[10.220624] (my_cpp_pkg) Command: {'cmd': ['/usr/bin/cmake', '--install', '/home/jason/ros2_ws/build/my_cpp_pkg'], 'cwd': '/home/jason/ros2_ws/build/my_cpp_pkg', 'env': OrderedDict([('LESSOPEN', '| /usr/bin/lesspipe %s'), ('USER', 'jason'), ('SSH_AGENT_PID', '1269'), ('XDG_SESSION_TYPE', 'x11'), ('SHLVL', '1'), ('LD_LIBRARY_PATH', '/opt/ros/foxy/opt/yaml_cpp_vendor/lib:/opt/ros/foxy/opt/rviz_ogre_vendor/lib:/opt/ros/foxy/lib/x86_64-linux-gnu:/opt/ros/foxy/lib'), ('HOME', '/home/jason'), ('OLDPWD', '/home/jason/ros2_ws/src'), ('DESKTOP_SESSION', 'ubuntu'), ('ROS_PYTHON_VERSION', '3'), ('GNOME_SHELL_SESSION_MODE', 'ubuntu'), ('GTK_MODULES', 'gail:atk-bridge'), ('MANAGERPID', '1035'), ('DBUS_SESSION_BUS_ADDRESS', 'unix:path=/run/user/1000/bus'), ('COLORTERM', 'truecolor'), ('IM_CONFIG_PHASE', '1'), ('COLCON_PREFIX_PATH', '/home/jason/ros2_ws/install'), ('ROS_DISTRO', 'foxy'), ('LOGNAME', 'jason'), ('JOURNAL_STREAM', '8:32847'), ('_', '/usr/bin/colcon'), ('ROS_VERSION', '2'), ('XDG_SESSION_CLASS', 'user'), ('USERNAME', 'jason'), ('TERM', 'xterm-256color'), ('GNOME_DESKTOP_SESSION_ID', 'this-is-deprecated'), ('ROS_LOCALHOST_ONLY', '0'), ('WINDOWPATH', '2'), ('PATH', '/opt/ros/foxy/bin:/usr/local/sbin:/usr/local/bin:/usr/sbin:/usr/bin:/sbin:/bin:/usr/games:/usr/local/games:/snap/bin'), ('SESSION_MANAGER', 'local/jason-vm:@/tmp/.ICE-unix/1341,unix/jason-vm:/tmp/.ICE-unix/1341'), ('INVOCATION_ID', '0e911e54357c4eda84d82919e4683c1c'), ('XDG_MENU_PREFIX', 'gnome-'), ('GNOME_TERMINAL_SCREEN', '/org/gnome/Terminal/screen/2fbc45ee_0cee_4947_8efc_aee3f36ac5bf'), ('XDG_RUNTIME_DIR', '/run/user/1000'), ('DISPLAY', ':0'), ('LANG', 'en_US.UTF-8'), ('XDG_CURRENT_DESKTOP', 'ubuntu:GNOME'), ('XMODIFIERS', '@im=ibus'), ('XDG_SESSION_DESKTOP', 'ubuntu'), ('XAUTHORITY', '/run/user/1000/gdm/Xauthority'), ('LS_COLORS', 'rs=0:di=01;34:ln=01;36:mh=00:pi=40;33:so=01;35:do=01;35:bd=40;33;01:cd=40;33;01:or=40;31;01:mi=00:su=37;41:sg=30;43:ca=30;41:tw=30;42:ow=34;42:st=37;44:ex=01;32:*.tar=01;31:*.tgz=01;31:*.arc=01;31:*.arj=01;31:*.taz=01;31:*.lha=01;31:*.lz4=01;31:*.lzh=01;31:*.lzma=01;31:*.tlz=01;31:*.txz=01;31:*.tzo=01;31:*.t7z=01;31:*.zip=01;31:*.z=01;31:*.dz=01;31:*.gz=01;31:*.lrz=01;31:*.lz=01;31:*.lzo=01;31:*.xz=01;31:*.zst=01;31:*.tzst=01;31:*.bz2=01;31:*.bz=01;31:*.tbz=01;31:*.tbz2=01;31:*.tz=01;31:*.deb=01;31:*.rpm=01;31:*.jar=01;31:*.war=01;31:*.ear=01;31:*.sar=01;31:*.rar=01;31:*.alz=01;31:*.ace=01;31:*.zoo=01;31:*.cpio=01;31:*.7z=01;31:*.rz=01;31:*.cab=01;31:*.wim=01;31:*.swm=01;31:*.dwm=01;31:*.esd=01;31:*.jpg=01;35:*.jpeg=01;35:*.mjpg=01;35:*.mjpeg=01;35:*.gif=01;35:*.bmp=01;35:*.pbm=01;35:*.pgm=01;35:*.ppm=01;35:*.tga=01;35:*.xbm=01;35:*.xpm=01;35:*.tif=01;35:*.tiff=01;35:*.png=01;35:*.svg=01;35:*.svgz=01;35:*.mng=01;35:*.pcx=01;35:*.mov=01;35:*.mpg=01;35:*.mpeg=01;35:*.m2v=01;35:*.mkv=01;35:*.webm=01;35:*.ogm=01;35:*.mp4=01;35:*.m4v=01;35:*.mp4v=01;35:*.vob=01;35:*.qt=01;35:*.nuv=01;35:*.wmv=01;35:*.asf=01;35:*.rm=01;35:*.rmvb=01;35:*.flc=01;35:*.avi=01;35:*.fli=01;35:*.flv=01;35:*.gl=01;35:*.dl=01;35:*.xcf=01;35:*.xwd=01;35:*.yuv=01;35:*.cgm=01;35:*.emf=01;35:*.ogv=01;35:*.ogx=01;35:*.aac=00;36:*.au=00;36:*.flac=00;36:*.m4a=00;36:*.mid=00;36:*.midi=00;36:*.mka=00;36:*.mp3=00;36:*.mpc=00;36:*.ogg=00;36:*.ra=00;36:*.wav=00;36:*.oga=00;36:*.opus=00;36:*.spx=00;36:*.xspf=00;36:'), ('GNOME_TERMINAL_SERVICE', ':1.88'), ('SSH_AUTH_SOCK', '/run/user/1000/keyring/ssh'), ('AMENT_PREFIX_PATH', '/home/jason/ros2_ws/install/my_py_pkg:/home/jason/ros2_ws/install/my_cpp_pkg:/opt/ros/foxy'), ('SHELL', '/bin/bash'), ('QT_ACCESSIBILITY', '1'), ('GDMSESSION', 'ubuntu'), ('LESSCLOSE', '/usr/bin/lesspipe %s %s'), ('GPG_AGENT_INFO', '/run/user/1000/gnupg/S.gpg-agent:0:1'), ('QT_IM_MODULE', 'ibus'), ('PWD', '/home/jason/ros2_ws/build/my_cpp_pkg'), ('XDG_CONFIG_DIRS', '/etc/xdg/xdg-ubuntu:/etc/xdg'), ('XDG_DATA_DIRS', '/usr/share/ubuntu:/usr/local/share/:/usr/share/:/var/lib/snapd/desktop'), ('PYTHONPATH', '/home/jason/ros2_ws/install/my_py_pkg/lib/python3.8/site-packages:/opt/ros/foxy/lib/python3.8/site-packages'), ('COLCON', '1'), ('VTE_VERSION', '6003'), ('CMAKE_PREFIX_PATH', '/home/jason/ros2_ws/install/my_cpp_pkg:/home/jason/ros2_ws/install/my_py_pkg:/opt/ros/foxy')]), 'shell': False}
[10.264209] (my_cpp_pkg) StdoutLine: {'line': b'-- Install configuration: ""\n'}
[10.274343] (-) TimerEvent: {}
[10.317503] (my_cpp_pkg) StdoutLine: {'line': b'-- Installing: /home/jason/ros2_ws/install/my_cpp_pkg/lib/my_cpp_pkg/cpp_node\n'}
[10.317977] (my_cpp_pkg) StdoutLine: {'line': b'-- Set runtime path of "/home/jason/ros2_ws/install/my_cpp_pkg/lib/my_cpp_pkg/cpp_node" to ""\n'}
[10.354631] (my_cpp_pkg) StdoutLine: {'line': b'-- Up-to-date: /home/jason/ros2_ws/install/my_cpp_pkg/lib/my_cpp_pkg/robot_news_station\n'}
[10.365848] (my_cpp_pkg) StdoutLine: {'line': b'-- Installing: /home/jason/ros2_ws/install/my_cpp_pkg/lib/my_cpp_pkg/smartphone\n'}
[10.367747] (my_cpp_pkg) StdoutLine: {'line': b'-- Set runtime path of "/home/jason/ros2_ws/install/my_cpp_pkg/lib/my_cpp_pkg/smartphone" to ""\n'}
[10.375327] (-) TimerEvent: {}
[10.393520] (my_cpp_pkg) StdoutLine: {'line': b'-- Up-to-date: /home/jason/ros2_ws/install/my_cpp_pkg/share/ament_index/resource_index/package_run_dependencies/my_cpp_pkg\n'}
[10.413531] (my_cpp_pkg) StdoutLine: {'line': b'-- Up-to-date: /home/jason/ros2_ws/install/my_cpp_pkg/share/ament_index/resource_index/parent_prefix_path/my_cpp_pkg\n'}
[10.433051] (my_cpp_pkg) StdoutLine: {'line': b'-- Up-to-date: /home/jason/ros2_ws/install/my_cpp_pkg/share/my_cpp_pkg/environment/ament_prefix_path.sh\n'}
[10.433442] (my_cpp_pkg) StdoutLine: {'line': b'-- Up-to-date: /home/jason/ros2_ws/install/my_cpp_pkg/share/my_cpp_pkg/environment/ament_prefix_path.dsv\n'}
[10.433670] (my_cpp_pkg) StdoutLine: {'line': b'-- Up-to-date: /home/jason/ros2_ws/install/my_cpp_pkg/share/my_cpp_pkg/environment/path.sh\n'}
[10.433842] (my_cpp_pkg) StdoutLine: {'line': b'-- Up-to-date: /home/jason/ros2_ws/install/my_cpp_pkg/share/my_cpp_pkg/environment/path.dsv\n'}
[10.433999] (my_cpp_pkg) StdoutLine: {'line': b'-- Up-to-date: /home/jason/ros2_ws/install/my_cpp_pkg/share/my_cpp_pkg/local_setup.bash\n'}
[10.434309] (my_cpp_pkg) StdoutLine: {'line': b'-- Up-to-date: /home/jason/ros2_ws/install/my_cpp_pkg/share/my_cpp_pkg/local_setup.sh\n'}
[10.434461] (my_cpp_pkg) StdoutLine: {'line': b'-- Up-to-date: /home/jason/ros2_ws/install/my_cpp_pkg/share/my_cpp_pkg/local_setup.zsh\n'}
[10.434515] (my_cpp_pkg) StdoutLine: {'line': b'-- Up-to-date: /home/jason/ros2_ws/install/my_cpp_pkg/share/my_cpp_pkg/local_setup.dsv\n'}
[10.434564] (my_cpp_pkg) StdoutLine: {'line': b'-- Installing: /home/jason/ros2_ws/install/my_cpp_pkg/share/my_cpp_pkg/package.dsv\n'}
[10.476941] (-) TimerEvent: {}
[10.479738] (my_cpp_pkg) StdoutLine: {'line': b'-- Up-to-date: /home/jason/ros2_ws/install/my_cpp_pkg/share/ament_index/resource_index/packages/my_cpp_pkg\n'}
[10.480381] (my_cpp_pkg) StdoutLine: {'line': b'-- Up-to-date: /home/jason/ros2_ws/install/my_cpp_pkg/share/my_cpp_pkg/cmake/my_cpp_pkgConfig.cmake\n'}
[10.480541] (my_cpp_pkg) StdoutLine: {'line': b'-- Up-to-date: /home/jason/ros2_ws/install/my_cpp_pkg/share/my_cpp_pkg/cmake/my_cpp_pkgConfig-version.cmake\n'}
[10.481006] (my_cpp_pkg) StdoutLine: {'line': b'-- Up-to-date: /home/jason/ros2_ws/install/my_cpp_pkg/share/my_cpp_pkg/package.xml\n'}
[10.483464] (my_cpp_pkg) CommandEnded: {'returncode': 0}
[10.584518] (-) TimerEvent: {}
[10.674243] (my_cpp_pkg) JobEnded: {'identifier': 'my_cpp_pkg', 'rc': 0}
[10.675357] (-) EventReactorShutdown: {}
