[0.020s] Invoking command in '/home/jason/ros2_ws/build/turtlesim_catch_them_all': CMAKE_PREFIX_PATH=/home/jason/ros2_ws/install/my_robot_interfaces:/home/jason/ros2_ws/install/turtlesim_catch_them_all:/home/jason/ros2_ws/install/my_robot_bringup:/home/jason/ros2_ws/install/my_cpp_pkg:/home/jason/ros2_ws/install/my_py_pkg:/opt/ros/foxy /usr/bin/cmake --build /home/jason/ros2_ws/build/turtlesim_catch_them_all -- -j4 -l4
[0.070s] [35m[1mScanning dependencies of target turtle_controller[0m
[0.085s] [ 50%] Built target turtle_spawner
[0.092s] [ 75%] [32mBuilding CXX object CMakeFiles/turtle_controller.dir/src/turtle_controller.cpp.o[0m
[7.904s] [100%] [32m[1mLinking CXX executable turtle_controller[0m
[8.591s] [100%] Built target turtle_controller
[8.604s] Invoked command in '/home/jason/ros2_ws/build/turtlesim_catch_them_all' returned '0': CMAKE_PREFIX_PATH=/home/jason/ros2_ws/install/my_robot_interfaces:/home/jason/ros2_ws/install/turtlesim_catch_them_all:/home/jason/ros2_ws/install/my_robot_bringup:/home/jason/ros2_ws/install/my_cpp_pkg:/home/jason/ros2_ws/install/my_py_pkg:/opt/ros/foxy /usr/bin/cmake --build /home/jason/ros2_ws/build/turtlesim_catch_them_all -- -j4 -l4
[8.635s] Invoking command in '/home/jason/ros2_ws/build/turtlesim_catch_them_all': CMAKE_PREFIX_PATH=/home/jason/ros2_ws/install/my_robot_interfaces:/home/jason/ros2_ws/install/turtlesim_catch_them_all:/home/jason/ros2_ws/install/my_robot_bringup:/home/jason/ros2_ws/install/my_cpp_pkg:/home/jason/ros2_ws/install/my_py_pkg:/opt/ros/foxy /usr/bin/cmake --install /home/jason/ros2_ws/build/turtlesim_catch_them_all
[8.644s] -- Install configuration: ""
[8.644s] -- Installing: /home/jason/ros2_ws/install/turtlesim_catch_them_all/lib/turtlesim_catch_them_all/turtle_controller
[8.647s] -- Set runtime path of "/home/jason/ros2_ws/install/turtlesim_catch_them_all/lib/turtlesim_catch_them_all/turtle_controller" to ""
[8.648s] -- Up-to-date: /home/jason/ros2_ws/install/turtlesim_catch_them_all/lib/turtlesim_catch_them_all/turtle_spawner
[8.648s] -- Up-to-date: /home/jason/ros2_ws/install/turtlesim_catch_them_all/share/ament_index/resource_index/package_run_dependencies/turtlesim_catch_them_all
[8.648s] -- Up-to-date: /home/jason/ros2_ws/install/turtlesim_catch_them_all/share/ament_index/resource_index/parent_prefix_path/turtlesim_catch_them_all
[8.648s] -- Up-to-date: /home/jason/ros2_ws/install/turtlesim_catch_them_all/share/turtlesim_catch_them_all/environment/ament_prefix_path.sh
[8.648s] -- Up-to-date: /home/jason/ros2_ws/install/turtlesim_catch_them_all/share/turtlesim_catch_them_all/environment/ament_prefix_path.dsv
[8.648s] -- Up-to-date: /home/jason/ros2_ws/install/turtlesim_catch_them_all/share/turtlesim_catch_them_all/environment/path.sh
[8.648s] -- Up-to-date: /home/jason/ros2_ws/install/turtlesim_catch_them_all/share/turtlesim_catch_them_all/environment/path.dsv
[8.649s] -- Up-to-date: /home/jason/ros2_ws/install/turtlesim_catch_them_all/share/turtlesim_catch_them_all/local_setup.bash
[8.649s] -- Up-to-date: /home/jason/ros2_ws/install/turtlesim_catch_them_all/share/turtlesim_catch_them_all/local_setup.sh
[8.649s] -- Up-to-date: /home/jason/ros2_ws/install/turtlesim_catch_them_all/share/turtlesim_catch_them_all/local_setup.zsh
[8.649s] -- Up-to-date: /home/jason/ros2_ws/install/turtlesim_catch_them_all/share/turtlesim_catch_them_all/local_setup.dsv
[8.649s] -- Installing: /home/jason/ros2_ws/install/turtlesim_catch_them_all/share/turtlesim_catch_them_all/package.dsv
[8.649s] -- Up-to-date: /home/jason/ros2_ws/install/turtlesim_catch_them_all/share/ament_index/resource_index/packages/turtlesim_catch_them_all
[8.649s] -- Up-to-date: /home/jason/ros2_ws/install/turtlesim_catch_them_all/share/turtlesim_catch_them_all/cmake/turtlesim_catch_them_allConfig.cmake
[8.649s] -- Up-to-date: /home/jason/ros2_ws/install/turtlesim_catch_them_all/share/turtlesim_catch_them_all/cmake/turtlesim_catch_them_allConfig-version.cmake
[8.649s] -- Up-to-date: /home/jason/ros2_ws/install/turtlesim_catch_them_all/share/turtlesim_catch_them_all/package.xml
[8.651s] Invoked command in '/home/jason/ros2_ws/build/turtlesim_catch_them_all' returned '0': CMAKE_PREFIX_PATH=/home/jason/ros2_ws/install/my_robot_interfaces:/home/jason/ros2_ws/install/turtlesim_catch_them_all:/home/jason/ros2_ws/install/my_robot_bringup:/home/jason/ros2_ws/install/my_cpp_pkg:/home/jason/ros2_ws/install/my_py_pkg:/opt/ros/foxy /usr/bin/cmake --install /home/jason/ros2_ws/build/turtlesim_catch_them_all
