[ 30%] Built target robot_news_station
[ 30%] Built target cpp_node
[ 30%] Built target add_two_ints_client_no_opp
[ 40%] Built target number_counter
[ 50%] Built target smartphone
[ 60%] Built target battery_led_node
[ 70%] Built target add_two_ints_client_opp
[ 80%] Built target number_plusher
[35m[1mScanning dependencies of target battery_node[0m
[ 90%] Built target add_two_ints_server
[ 95%] [32mBuilding CXX object CMakeFiles/battery_node.dir/src/battery_node.cpp.o[0m
[100%] [32m[1mLinking CXX executable battery_node[0m
[100%] Built target battery_node
-- Install configuration: ""
-- Up-to-date: /home/jason/ros2_ws/install/my_cpp_pkg/lib/my_cpp_pkg/cpp_node
-- Up-to-date: /home/jason/ros2_ws/install/my_cpp_pkg/lib/my_cpp_pkg/robot_news_station
-- Up-to-date: /home/jason/ros2_ws/install/my_cpp_pkg/lib/my_cpp_pkg/smartphone
-- Up-to-date: /home/jason/ros2_ws/install/my_cpp_pkg/lib/my_cpp_pkg/number_plusher
-- Up-to-date: /home/jason/ros2_ws/install/my_cpp_pkg/lib/my_cpp_pkg/number_counter
-- Up-to-date: /home/jason/ros2_ws/install/my_cpp_pkg/lib/my_cpp_pkg/add_two_ints_server
-- Up-to-date: /home/jason/ros2_ws/install/my_cpp_pkg/lib/my_cpp_pkg/add_two_ints_client_no_opp
-- Up-to-date: /home/jason/ros2_ws/install/my_cpp_pkg/lib/my_cpp_pkg/add_two_ints_client_opp
-- Up-to-date: /home/jason/ros2_ws/install/my_cpp_pkg/lib/my_cpp_pkg/battery_led_node
-- Installing: /home/jason/ros2_ws/install/my_cpp_pkg/lib/my_cpp_pkg/battery_node
-- Set runtime path of "/home/jason/ros2_ws/install/my_cpp_pkg/lib/my_cpp_pkg/battery_node" to ""
-- Up-to-date: /home/jason/ros2_ws/install/my_cpp_pkg/share/ament_index/resource_index/package_run_dependencies/my_cpp_pkg
-- Up-to-date: /home/jason/ros2_ws/install/my_cpp_pkg/share/ament_index/resource_index/parent_prefix_path/my_cpp_pkg
-- Up-to-date: /home/jason/ros2_ws/install/my_cpp_pkg/share/my_cpp_pkg/environment/ament_prefix_path.sh
-- Installing: /home/jason/ros2_ws/install/my_cpp_pkg/share/my_cpp_pkg/environment/ament_prefix_path.dsv
-- Up-to-date: /home/jason/ros2_ws/install/my_cpp_pkg/share/my_cpp_pkg/environment/path.sh
-- Installing: /home/jason/ros2_ws/install/my_cpp_pkg/share/my_cpp_pkg/environment/path.dsv
-- Up-to-date: /home/jason/ros2_ws/install/my_cpp_pkg/share/my_cpp_pkg/local_setup.bash
-- Up-to-date: /home/jason/ros2_ws/install/my_cpp_pkg/share/my_cpp_pkg/local_setup.sh
-- Up-to-date: /home/jason/ros2_ws/install/my_cpp_pkg/share/my_cpp_pkg/local_setup.zsh
-- Installing: /home/jason/ros2_ws/install/my_cpp_pkg/share/my_cpp_pkg/local_setup.dsv
-- Installing: /home/jason/ros2_ws/install/my_cpp_pkg/share/my_cpp_pkg/package.dsv
-- Up-to-date: /home/jason/ros2_ws/install/my_cpp_pkg/share/ament_index/resource_index/packages/my_cpp_pkg
-- Up-to-date: /home/jason/ros2_ws/install/my_cpp_pkg/share/my_cpp_pkg/cmake/my_cpp_pkgConfig.cmake
-- Up-to-date: /home/jason/ros2_ws/install/my_cpp_pkg/share/my_cpp_pkg/cmake/my_cpp_pkgConfig-version.cmake
-- Up-to-date: /home/jason/ros2_ws/install/my_cpp_pkg/share/my_cpp_pkg/package.xml
