[0.118s] Invoking command in '/home/jason/ros2_ws/build/my_robot_bringup': AMENT_PREFIX_PATH=/home/jason/ros2_ws/install/my_py_pkg:/home/jason/ros2_ws/install/my_cpp_pkg:/home/jason/ros2_ws/install/my_robot_interfaces:/opt/ros/foxy CMAKE_PREFIX_PATH=${CMAKE_PREFIX_PATH}:/home/jason/ros2_ws/install/my_py_pkg:/opt/ros/foxy /usr/bin/cmake --build /home/jason/ros2_ws/build/my_robot_bringup -- -j4 -l4
[0.360s] -- Found ament_cmake: 0.9.8 (/opt/ros/foxy/share/ament_cmake/cmake)
[0.380s] -- Using PYTHON_EXECUTABLE: /usr/bin/python3
[0.540s] -- Override CMake install command with custom implementation using symlinks instead of copying resources
[0.610s] -- Configuring done
[0.614s] -- Generating done
[0.615s] -- Build files have been written to: /home/jason/ros2_ws/build/my_robot_bringup
[0.661s] Invoked command in '/home/jason/ros2_ws/build/my_robot_bringup' returned '0': AMENT_PREFIX_PATH=/home/jason/ros2_ws/install/my_py_pkg:/home/jason/ros2_ws/install/my_cpp_pkg:/home/jason/ros2_ws/install/my_robot_interfaces:/opt/ros/foxy CMAKE_PREFIX_PATH=${CMAKE_PREFIX_PATH}:/home/jason/ros2_ws/install/my_py_pkg:/opt/ros/foxy /usr/bin/cmake --build /home/jason/ros2_ws/build/my_robot_bringup -- -j4 -l4
[0.695s] Invoking command in '/home/jason/ros2_ws/build/my_robot_bringup': AMENT_PREFIX_PATH=/home/jason/ros2_ws/install/my_py_pkg:/home/jason/ros2_ws/install/my_cpp_pkg:/home/jason/ros2_ws/install/my_robot_interfaces:/opt/ros/foxy CMAKE_PREFIX_PATH=${CMAKE_PREFIX_PATH}:/home/jason/ros2_ws/install/my_py_pkg:/opt/ros/foxy /usr/bin/cmake --install /home/jason/ros2_ws/build/my_robot_bringup
[0.703s] -- Install configuration: ""
[0.703s] -- Execute custom install script
[0.704s] -- Up-to-date symlink: /home/jason/ros2_ws/install/my_robot_bringup/share/my_robot_bringup/launch/number_app.launch.py
[0.704s] -- Up-to-date symlink: /home/jason/ros2_ws/install/my_robot_bringup/share/ament_index/resource_index/package_run_dependencies/my_robot_bringup
[0.704s] -- Up-to-date symlink: /home/jason/ros2_ws/install/my_robot_bringup/share/ament_index/resource_index/parent_prefix_path/my_robot_bringup
[0.704s] -- Up-to-date symlink: /home/jason/ros2_ws/install/my_robot_bringup/share/my_robot_bringup/environment/ament_prefix_path.sh
[0.704s] -- Up-to-date symlink: /home/jason/ros2_ws/install/my_robot_bringup/share/my_robot_bringup/environment/ament_prefix_path.dsv
[0.704s] -- Up-to-date symlink: /home/jason/ros2_ws/install/my_robot_bringup/share/my_robot_bringup/environment/path.sh
[0.704s] -- Up-to-date symlink: /home/jason/ros2_ws/install/my_robot_bringup/share/my_robot_bringup/environment/path.dsv
[0.705s] -- Up-to-date symlink: /home/jason/ros2_ws/install/my_robot_bringup/share/my_robot_bringup/local_setup.bash
[0.705s] -- Up-to-date symlink: /home/jason/ros2_ws/install/my_robot_bringup/share/my_robot_bringup/local_setup.sh
[0.705s] -- Up-to-date symlink: /home/jason/ros2_ws/install/my_robot_bringup/share/my_robot_bringup/local_setup.zsh
[0.705s] -- Up-to-date symlink: /home/jason/ros2_ws/install/my_robot_bringup/share/my_robot_bringup/local_setup.dsv
[0.705s] -- Symlinking: /home/jason/ros2_ws/install/my_robot_bringup/share/my_robot_bringup/package.dsv
[0.732s] -- Up-to-date symlink: /home/jason/ros2_ws/install/my_robot_bringup/share/ament_index/resource_index/packages/my_robot_bringup
[0.732s] -- Up-to-date symlink: /home/jason/ros2_ws/install/my_robot_bringup/share/my_robot_bringup/cmake/my_robot_bringupConfig.cmake
[0.732s] -- Up-to-date symlink: /home/jason/ros2_ws/install/my_robot_bringup/share/my_robot_bringup/cmake/my_robot_bringupConfig-version.cmake
[0.733s] -- Up-to-date symlink: /home/jason/ros2_ws/install/my_robot_bringup/share/my_robot_bringup/package.xml
[0.736s] Invoked command in '/home/jason/ros2_ws/build/my_robot_bringup' returned '0': AMENT_PREFIX_PATH=/home/jason/ros2_ws/install/my_py_pkg:/home/jason/ros2_ws/install/my_cpp_pkg:/home/jason/ros2_ws/install/my_robot_interfaces:/opt/ros/foxy CMAKE_PREFIX_PATH=${CMAKE_PREFIX_PATH}:/home/jason/ros2_ws/install/my_py_pkg:/opt/ros/foxy /usr/bin/cmake --install /home/jason/ros2_ws/build/my_robot_bringup
